…
```r
data(mtcars)
mtcars <- mtcars %>% group_by(cyl, am) %>% arrange(cyl, am)

i <- mtcars %>% group_indices()

mtcars <- mtcars %>% ungroup() %>% mutate(group_id = i)
mtcars %>% select(cyl, am, group_id)
```

```
## # A tibble: 32 x 3
##      cyl    am group_id
##    <dbl> <dbl>    <int>
##  1     4     0        1
##  2     4     0        1
##  3     4     0        1
##  4     4     1        2
##  5     4     1        2
##  6     4     1        2
##  7     4     1        2
##  8     4     1        2
##  9     4     1        2
## 10     4     1        2
## # ... with 22 more rows
```
…
